<?xml version="1.0" encoding="UTF-8"?>
<svg viewBox="0 0 744.09447 744.09447" xmlns="http://www.w3.org/2000/svg" xmlns:xlink="http://www.w3.org/1999/xlink">
 <defs>
  <linearGradient id="a">
   <stop offset="0"/>
   <stop stop-color="#fff" offset="1"/>
  </linearGradient>
  <radialGradient id="c" r="2.8528" xlink:href="#a"/>
  <radialGradient id="b" r="3.4193" xlink:href="#a"/>
 </defs>
 <path transform="translate(141.08 -279.28)" d="m558.55 706.87a213.06 213.06 0 1 0 -426.11 0 213.06 213.06 0 1 0 426.11 0z" fill="url(#c)" fill-rule="evenodd" stroke="#000" stroke-width="6.25"/>
 <path transform="matrix(.88547 0 0 .88547 179.21 -202.64)" d="m558.55 706.87a213.06 213.06 0 1 0 -426.11 0 213.06 213.06 0 1 0 426.11 0z" fill="url(#b)" fill-rule="evenodd"/>
 <path transform="matrix(.59794 -.62472 .62472 .59794 -122.54 155.92)" d="m325.34 603.22a33.11 28.791 0 1 0 -66.22 0 33.11 28.791 0 1 0 66.22 0z" fill="#fff" fill-rule="evenodd" stroke="#000" stroke-width="1.25"/>
 <path transform="matrix(-.8531 -.42674 .36646 -.88667 544.61 999.22)" d="m325.34 603.22a33.11 28.791 0 1 0 -66.22 0 33.11 28.791 0 1 0 66.22 0z" fill="#fff" fill-rule="evenodd" stroke="#000" stroke-width="1.25"/>
 <path transform="matrix(1.2798 0 0 1.2798 61.668 -479.14)" d="m333.98 739.98a24.473 24.473 0 1 0 -48.945 0 24.473 24.473 0 1 0 48.945 0z" fill="#fff" fill-rule="evenodd" stroke="#40403f" stroke-width="2.5"/>
 <path d="m631.77 313.81-5.7256 5.2894c-3.438 3.1761-7.5866 4.7614-7.5866 4.7614s2.5726 2.4801 4.4701 5.1091c1.7841 2.4718 3.9736 7.815 3.9736 7.815s3.6849-1.2818 7.5039-4.3104 6.5962-5.9687 6.5962-5.9687l-9.2315-12.696z" fill="#fff" fill-rule="evenodd"/>
 <path d="m644.71 301.73s-1.3985 2.5404-5.1033 5.963c-3.6399 3.3626-6.1195 5.4036-6.1195 5.4036s2.7432 2.8342 4.5272 5.306c1.8279 2.5326 4.6472 7.1928 4.6472 7.1928-0.0571-0.19694 2.0522-1.0219 5.8712-4.0506s5.1918-4.9211 5.1918-4.9211l-9.0147-14.894z" fill="#fff" fill-rule="evenodd"/>
 <path d="m621.16 300.02s-0.83334 3.0171-5.1348 5.1181-6.4877 4.8698-6.4877 4.8698 4.1276 3.9274 5.0982 7.2755l1.6558 5.7115s3.6849-1.2818 7.5039-4.3104 7.3839-6.1971 7.3839-6.1971l-10.019-12.467z" fill="#fff" fill-rule="evenodd"/>
 <path d="m634.7 287.47s0.68423 4.3734-3.3688 6.9208-10.134 4.9083-8.6416 4.9025c-1.8867 0.11997 2.4563 2.983 4.5172 5.7946 2.0526 2.8003 4.9353 6.647 4.9353 6.647s3.6928-2.5692 7.1673-5.9875 4.4823-5.8259 4.4823-5.8259l-9.0918-12.451z" fill="#fff" fill-rule="evenodd"/>
 <path d="m276.4 606.1h-233.21" fill="none" stroke="#000" stroke-width="6.25"/>
 <path d="m238.97 525.48h-143.96" fill="none" stroke="#000" stroke-width="6.25"/>
 <path d="m244.73 560.03h-181.39" fill="none" stroke="#000" stroke-width="6.25"/>
 <path d="m293.57 297.98s-26.69 26.899-37.975 80.043c-11.281 53.123 4.2395 87.059 4.2395 87.059" fill="none" stroke="#000" stroke-width="6.25"/>
 <path d="m271.04 293.19s-26.69 26.899-37.975 80.043c-11.281 53.123 4.2395 87.059 4.2395 87.059" fill="none" stroke="#000" stroke-width="6.25"/>
</svg>
